pipelined_interrupt/wave.vcd
$date
	Tue Apr  2 18:23:01 2024
$end
$version
	Icarus Verilog
$end
$timescale
	1ns
$end
$scope module testbench $end
$scope module cpu $end
$var wire 1 ! clk $end
$var wire 1 " clrn $end
$var wire 5 # ern [4:0] $end
$var wire 1 $ ewreg $end
$var wire 1 % exc_ovr $end
$var wire 1 & intr $end
$var wire 1 ' zero $end
$var wire 1 ( wsta $end
$var wire 1 ) wreg $end
$var wire 1 * wpcir $end
$var wire 1 + wmem $end
$var wire 1 , wepc $end
$var wire 32 - wdi [31:0] $end
$var wire 1 . wcau $end
$var wire 32 / stalr [31:0] $end
$var wire 32 0 sta_in [31:0] $end
$var wire 32 1 sta [31:0] $end
$var wire 1 2 shift $end
$var wire 1 3 sext $end
$var wire 2 4 sepc [1:0] $end
$var wire 2 5 selpc [1:0] $end
$var wire 5 6 rt [4:0] $end
$var wire 1 7 rsrtequ $end
$var wire 5 8 rs [4:0] $end
$var wire 5 9 rn [4:0] $end
$var wire 1 : regrt $end
$var wire 5 ; rd [4:0] $end
$var wire 32 < qb [31:0] $end
$var wire 32 = qa [31:0] $end
$var wire 2 > pcsrc [1:0] $end
$var wire 32 ? pcd [31:0] $end
$var wire 32 @ pc8c0r [31:0] $end
$var wire 32 A pc4 [31:0] $end
$var wire 32 B pc [31:0] $end
$var wire 1 C ove $end
$var wire 1 D ov $end
$var wire 6 E op [5:0] $end
$var wire 32 F npc [31:0] $end
$var wire 32 G next_pc [31:0] $end
$var wire 1 H mtc0 $end
$var wire 32 I mmo [31:0] $end
$var wire 2 J mfc0 [1:0] $end
$var wire 1 K m2reg $end
$var wire 32 L jpc [31:0] $end
$var wire 1 M jal $end
$var wire 1 N isbr $end
$var wire 1 O irq $end
$var wire 1 P inta $end
$var wire 32 Q inst [31:0] $end
$var wire 32 R ins [31:0] $end
$var wire 32 S imm [31:0] $end
$var wire 2 T fwdb [1:0] $end
$var wire 2 U fwda [1:0] $end
$var wire 6 V func [5:0] $end
$var wire 1 W exc $end
$var wire 32 X esa [31:0] $end
$var wire 32 Y epcin [31:0] $end
$var wire 32 Z epc_in [31:0] $end
$var wire 32 [ epc8 [31:0] $end
$var wire 32 \ epc [31:0] $end
$var wire 32 ] ealub [31:0] $end
$var wire 32 ^ ealua [31:0] $end
$var wire 32 _ ealu0 [31:0] $end
$var wire 32 ` ealu [31:0] $end
$var wire 32 a dpc4 [31:0] $end
$var wire 32 b db [31:0] $end
$var wire 32 c da [31:0] $end
$var wire 32 d cause [31:0] $end
$var wire 32 e cau_in [31:0] $end
$var wire 32 f cau [31:0] $end
$var wire 1 g cancel $end
$var wire 32 h bpc [31:0] $end
$var wire 1 i aluimm $end
$var wire 4 j aluc [3:0] $end
$var reg 32 k ea [31:0] $end
$var reg 4 l ealuc [3:0] $end
$var reg 1 m ealuimm $end
$var reg 32 n eb [31:0] $end
$var reg 1 o ecancel $end
$var reg 32 p eimm [31:0] $end
$var reg 1 q eisbr $end
$var reg 1 r ejal $end
$var reg 1 s em2reg $end
$var reg 2 t emfc0 [1:0] $end
$var reg 1 u eove $end
$var reg 32 v epc4 [31:0] $end
$var reg 5 w ern0 [4:0] $end
$var reg 1 x eshift $end
$var reg 1 y ewmem $end
$var reg 1 z ewreg0 $end
$var reg 32 { malu [31:0] $end
$var reg 32 | mb [31:0] $end
$var reg 1 } mexc_ovr $end
$var reg 1 ~ misbr $end
$var reg 1 !" mm2reg $end
$var reg 5 "" mrn [4:0] $end
$var reg 1 #" mwmem $end
$var reg 1 $" mwreg $end
$var reg 32 %" pce [31:0] $end
$var reg 32 &" pcm [31:0] $end
$var reg 32 '" walu [31:0] $end
$var reg 1 (" wm2reg $end
$var reg 32 )" wmo [31:0] $end
$var reg 5 *" wrn [4:0] $end
$var reg 1 +" wwreg $end
$upscope $end
$upscope $end
$enddefinitions $end
#0
$dumpvars
0+"
b0 *"
b0 )"
0("
b0 '"
b0 &"
b0 %"
0$"
0#"
b0 ""
0!"
0~
0}
b0 |
b0 {
0z
0y
0x
b0 w
b0 v
0u
b0 t
0s
0r
0q
b0 p
0o
b0 n
0m
b0 l
b0 k
b11 j
0i
b0 h
0g
b0 f
b0 e
b0 d
b0 c
b0 b
b0 a
b0 `
b0 _
b0 ^
b0 ]
b0 \
b100 [
b0 Z
b0 Y
b0 X
0W
b0 V
b0 U
b0 T
b0 S
b1000000000000000000000011101 R
b0 Q
0P
0O
0N
0M
b0 L
0K
b0 J
b0 I
0H
b100 G
b100 F
b0 E
0D
0C
b0 B
b100 A
b100 @
b0 ?
b0 >
b0 =
b0 <
b0 ;
0:
b0 9
b0 8
17
b0 6
b0 5
b0 4
03
12
b0 1
b0 0
b0 /
0.
b0 -
0,
0+
1*
1)
0(
1'
0&
0%
0$
b0 #
0"
1!
$end
#1
1"
#2
0!
#4
0)
b0 j
b1110100 G
02
b1110100 F
b1111000 h
b1000 A
b11 >
1N
b100 Z
1$
b1110100 L
b11101 S
b11101 V
b10 E
b0 R
b100 Y
1x
b11 l
1z
b1000000000000000000000011101 Q
b100 a
b100 B
1!
#6
0!
#8
1)
b11 j
12
b1000 @
b1111000 A
b1000 h
b1000 [
b0 >
0N
b1111000 G
b1111000 F
b1110100 Z
b100000000010000000000000001111 R
b0 L
b0 S
b0 V
b0 E
b1110100 Y
b10000000000000000000000000000000 e
b1110100000000000000000000000000 X
0$
b1110100 B
b1000 a
b0 Q
b100 ?
b10000000000000000000000000000000 d
1q
b100 v
0x
b11101 p
b0 l
0z
1$"
1!
#10
0!
#12
b1000 9
1:
1i
b1111100 G
b1100 @
13
b1111100 F
b1100 [
02
b10110100 h
b1111100 A
b0 j
b1111000 Z
b0 e
b0 X
1$
b1000000000000000111100 L
b1111 S
b1111 V
b1000 6
b1000 E
b1000000100010000110000000000000 R
b1111000 Y
1+"
1~
0$"
b100 %"
b0 d
0q
b1000 v
1x
b0 p
b11 l
1z
b1110100 ?
b100000000010000000000000001111 Q
b1111000 a
b1111000 B
1!
#14
0!
#16
b0 d
0)
1(
b1111 0
b1111 e
07
1H
b1111 b
b1100 9
b1111 `
0:
0i
0'
b1111 _
b10000000 G
b10000000 F
03
b1111100 @
b10000000 A
b11000000001111100 h
b1111100 [
b1 T
b1111 Z
b1001010000000000000011010 R
b10001000011000000000000000 L
b110000000000000 S
b0 V
b1100 ;
b100 8
b10000 E
b1000 #
b111100000000000000000000000000 X
b1111 ]
b1111100 Y
b1111100 B
b1111100 a
b1000000100010000110000000000000 Q
b1111000 ?
b1110100 %"
b1111000 v
0x
b1000 w
b1111 p
1m
b0 l
b100 &"
0~
1$"
0+"
1!
#18
0!
#20
1g
1.
1,
b11110000 /
b10 5
1W
b1 4
b1000 d
b1000 G
b10000000 @
b10000100 F
b10000000 [
b11101000 h
b10000100 A
b1111100 Z
b11110000 0
b1000 e
1(
0H
b0 9
b10 T
b1100 #
b110000000 X
0$
b100101000000000000001101000 L
b11010 S
b11010 V
b0 ;
b1001 8
b0 E
b0 R
b1111100 Y
1+"
b1110100 &"
b1000 ""
b1111 {
b1111000 %"
b1111100 v
b1100 w
b110000000000000 p
b1111 n
0m
0z
b1111 1
b1111100 ?
b1001010000000000000011010 Q
b10000000 a
b10000000 B
1!
#22
0!
#24
b0 e
b0 d
b11 j
b1100 F
b10000100 @
b1100 A
b10000100 h
12
b10000100 [
0(
0g
0.
0,
b1100 G
b0 5
0W
b0 4
b1111 0
17
b1111 /
b1000 Z
b0 b
b1000000000110100110100000000000 R
b0 L
b0 S
b0 V
b0 6
b0 8
b0 #
b1101000000000000000000000000000 X
b1000 Y
b0 T
b1111 -
b1000 B
b10000100 a
b0 Q
b10000000 ?
b11110000 1
b1000 f
b1111100 \
b1111100 %"
1o
b10000000 v
b0 w
b11010 p
b1111000 &"
b1100 ""
b1111 |
0$"
b1000 *"
b1111 '"
1!
#26
0!
#28
b0 e
b0 d
b10 J
1:
b0 j
02
b10000 G
b10001000 @
b10000 F
b10001000 [
b11010000000001100 h
b10000 A
1)
b0 `
1'
b0 _
b11010 9
b1100 Z
b0 X
b0 ]
b11010011010000000000000 L
b110100000000000 S
b1101 ;
b11010 6
b10000 E
b110011010110110000000000001100 R
b1100 Y
b1100 *"
0+"
b1111100 &"
b0 ""
b10000000 %"
0o
b10000100 v
1x
b0 p
b0 n
b11 l
b1000 ?
b1000000000110100110100000000000 Q
b1100 a
b1100 B
1!
#30
0!
#32
1i
1)
b10100 G
b10100 F
b10100 A
b1000000 h
b1 j
b10000 [
1:
07
b1000 c
b1000 `
b0 J
b11011 9
b1 U
b10000 Z
b10001111011110110000000000100000 R
b1101011011000000000000110000 L
b1100 S
b1100 V
b0 ;
b11011 6
b11010 8
b1100 E
b1000 @
b11010 #
b110100000 X
1$
b10000 Y
b10000 B
b10000 a
b110011010110110000000000001100 Q
b1100 ?
b1000 %"
b10 t
b1100 v
0x
b11010 w
b110100000000000 p
b0 l
1z
b10000000 &"
b0 |
b0 {
b0 *"
1!
#34
0!
#36
b11000 G
13
b11000 F
b10100 [
b10010100 h
b11000 A
b0 j
0'
b1000 _
1K
b1000 c
17
b1000 `
b10100 Z
b0 -
b1000 b
b1 T
b1 U
b10100 @
b11011 #
b110000000000000000000000000000 X
b1000 ^
b1100 ]
b1101111011000000000010000000 L
b100000 S
b100000 V
b11011 8
b100011 E
b0 R
b10100 Y
b0 '"
b1000 &"
b11010 ""
b1000 {
1$"
b1100 %"
b0 t
b10000 v
b11011 w
b1100 p
b1000 k
1m
b1 l
b10000 ?
b10001111011110110000000000100000 Q
b10100 a
b10100 B
1!
#38
0!
#40
b0 e
b0 d
b11 j
b11100 G
12
b11100 F
03
b11000 @
1)
b11100 A
b11000 h
0:
0i
b11000 [
0K
1*
b0 b
b0 c
b101000 `
b0 9
b101000 _
b11000 Z
b11011000000000000000001000 R
b0 L
b0 S
b0 V
b0 6
b0 8
b0 E
b10000000000000000000000000000000 X
b100000 ]
b11000 Y
b0 T
b0 U
b1000 -
b11000 B
b11000 a
b0 Q
b10100 ?
b10000 %"
b10100 v
b100000 p
b1000 n
b0 l
1s
b1100 &"
b11011 ""
b11010 *"
b1000 '"
1+"
1!
#42
0!
#44
0)
b0 j
b11100 @
b1010100 G
b11100 [
02
b1010100 F
1N
b111100 h
b100000 A
b10 >
1'
b0 `
07
b0 _
b11100 Z
b1010100 I
b1010100 c
b0 #
b0 X
b0 ^
b0 ]
b11 U
b1101100000000000000000100000 L
b1000 S
b1000 V
b11011 8
b0 R
b11100 Y
b11011 *"
b10000 &"
b1000 |
b101000 {
1!"
b10100 %"
b11000 v
1x
b0 w
b0 p
b0 n
b0 k
0m
b11 l
0s
b11000 ?
b11011000000000000000001000 Q
b11100 a
b11100 B
1!
#46
b1000 =
0!
#48
1)
b11 j
b1010100 `
0'
b1010100 _
b100000 @
b1011000 A
b100000 h
12
0N
b100000 [
b0 >
17
b1011000 G
b0 =
b1010100 Z
b1011000 F
b0 L
b0 S
b0 V
b0 8
b10000000000000000000000000000000 e
b1010100 ^
b100000000000000000000000000000 X
0$
b1010100 Y
b0 I
b0 c
b0 U
b1010100 -
b1010100 B
b100000 a
b0 Q
b11100 ?
b11000 %"
b10000000000000000000000000000000 d
1q
b11100 v
0x
b1000 p
b1010100 k
b0 l
0z
b10100 &"
b0 ""
b0 |
b0 {
0!"
b101000 '"
b1010100 )"
1("
1!
#50
0!
#52
b1011100 G
b100100 @
b1011100 F
b100100 [
b1011000 h
b1011100 A
b0 `
1'
b0 _
b1011000 Z
b0 -
b100111 I
b0 e
b0 X
b0 ^
1$
b1000000000000000000000010000 R
b1011000 Y
b0 *"
b0 '"
b0 )"
0("
b11000 &"
1~
b1010100 {
0$"
b11100 %"
b0 d
0q
b100000 v
1x
b0 p
b0 k
b11 l
1z
b1010100 ?
b1011000 a
b1011000 B
1!
#54
0!
#56
0)
b0 j
b1000000 G
b1011100 @
b1100000 A
b10011100 h
02
b1000000 F
b1011100 [
b11 >
1N
b1011100 Z
b0 R
b1000000 L
b10000 S
b10000 V
b10 E
b1011100 Y
b0 I
b1010100 -
b1011100 B
b1011100 a
b1000000000000000000000010000 Q
b1011000 ?
b1010100 %"
b1011000 v
b11100 &"
0~
b0 {
1$"
b1010100 '"
b100111 )"
0+"
1!
#58
0!
#60
1)
b11 j
12
b1100000 @
b1100000 [
b1100000 h
b1000100 A
b0 >
0N
b1000100 G
b1000100 F
b1000000 Z
b0 -
b10000000000000000000000000000000 e
b1000000000000000000000000000000 X
0$
b0 L
b0 S
b0 V
b0 E
b1000000000110100111000000000000 R
b1000000 Y
b0 '"
b0 )"
1+"
b1010100 &"
b1011000 %"
b10000000000000000000000000000000 d
1q
b1011100 v
0x
b10000 p
b0 l
0z
b1011100 ?
b0 Q
b1100000 a
b1000000 B
1!
#62
0!
#64
b11 J
1:
b0 j
b1001000 G
02
b1001000 F
b1100100 @
b1001000 A
b11100000001000100 h
b1100100 [
07
b1000 b
b11010 9
b1000 <
b1000100 Z
b100011010110100000000000000100 R
b11010011100000000000000 L
b111000000000000 S
b1110 ;
b11010 6
b10000 E
b0 e
b0 X
1$
b1000100 Y
b1000100 B
b1000100 a
b1000000000110100111000000000000 Q
b1000000 ?
b1011100 %"
b0 d
0q
b1100000 v
1x
b0 p
b11 l
1z
b1011000 &"
1~
0$"
1!
#66
0!
#68
1i
0'
b1000 _
1)
13
b1001100 G
b1001100 F
b1001000 [
b11010 9
b1011000 h
b1001100 A
1:
b1111100 c
17
b1111100 `
b0 J
b1111100 b
b1000 =
b1001000 Z
b1 T
b1 U
b1111100 @
b11010 #
b111000000 X
b1000 ]
b1101011010000000000000010000 L
b100 S
b100 V
b0 ;
b11010 8
b1000 E
b1000000100110100111000000000000 R
b1001000 Y
0+"
b1011100 &"
0~
1$"
b1000000 %"
b11 t
b1000100 v
0x
b11010 w
b111000000000000 p
b1000 n
b0 l
b1000100 ?
b100011010110100000000000000100 Q
b1001000 a
b1001000 B
1!
#70
0!
#72
0'
b0 d
0)
1,
b10000000 0
b10000000 e
1H
b1110 9
0:
0i
b1010000 G
b10000000 _
b1010000 F
03
b1010000 A
b11100000001001100 h
b1001100 [
07
b10000000 b
b0 c
b0 =
b10000000 `
b10000000 Z
b1000010000000000000000000011000 R
b10011010011100000000000000 L
b111000000000000 S
b0 V
b1110 ;
b100 8
b10000 E
b1001100 @
b10000000000000000000000000000 X
b1111100 ^
b100 ]
b1001100 Y
b1 T
b0 U
b1001100 B
b1001100 a
b1000000100110100111000000000000 Q
b1001000 ?
b1000100 %"
b0 t
b1001000 v
b100 p
b1111100 n
b1111100 k
1m
b1000000 &"
b11010 ""
b1000 |
b1111100 {
1+"
1!
#74
0!
#76
b0 d
1(
1g
b1 5
0)
b10000000 `
b10000000 _
b10000000 G
b1010000 @
b1010100 F
b1010000 [
0:
b10110000 h
b1010100 A
0H
b1111 0
b1010000 Z
b0 e
17
0,
b0 b
b0 9
b0 <
b0 T
b1111100 -
b1110 #
b111000000 X
b0 ^
b10000000 ]
0$
b1000000000000000000001100000 L
b11000 S
b11000 V
b0 ;
b0 6
b10000 8
b0 R
b1010000 Y
b11010 *"
b1111100 '"
b1000100 &"
b1111100 |
b10000000 {
b1001000 %"
b1001100 v
b1110 w
b111000000000000 p
b10000000 n
b0 k
0m
0z
b10000000 \
b1001100 ?
b1000010000000000000000000011000 Q
b1010000 a
b1010000 B
1!
#78
0!
#80
b11 j
b0 `
1'
b0 _
0:
12
b10000100 F
b1010100 @
b10000100 A
b1010100 h
b10000100 G
0(
0g
b1010100 [
b0 5
b0 0
b0 /
b10000000 Z
b0 L
b0 S
b0 V
b0 8
b0 E
b0 #
b1100000000000000000000000000000 X
b0 ]
b10000000 Y
b10000000 -
b10000000 B
b1010100 a
b0 Q
b1010000 ?
b1111 1
b1001100 %"
1o
b1010000 v
b0 w
b11000 p
b0 n
b1001000 &"
b1110 ""
b10000000 |
0$"
b10000000 '"
1!
#82
0!
#84
b10001000 G
b1011000 @
b10001000 F
b1011000 [
b10000100 h
b10001000 A
1)
b10000100 Z
b0 X
b1100 R
b10000100 Y
b1110 *"
0+"
b1001100 &"
b0 ""
b0 |
b0 {
b1010000 %"
0o
b1010100 v
1x
b0 p
b11 l
b10000000 ?
b10000100 a
b10000100 B
1!
#86
0!
#88
0)
1(
b11110000 0
1g
1.
1,
b11110000 /
b10 5
1W
b1 4
b0 j
b1000 G
b10001100 F
b100 e
b10001000 @
b10001100 A
b10111000 h
b100 d
02
b10001000 [
b10000100 Z
b0 R
b110000 L
b1100 S
b1100 V
1$
b10000100 Y
b0 -
b10001000 B
b10001000 a
b1100 Q
b10000100 ?
b10000000 %"
b10000100 v
1z
b1010000 &"
b0 *"
b0 '"
1!
#90
0!
#92
b11 j
b10001100 @
b1100 F
b10001100 [
0(
b0 e
12
b10001100 h
b1100 A
0g
0.
0,
b1100 G
b0 d
b0 5
0W
b0 4
b1111 0
b1111 /
b1000 Z
b110000000000000000000000000000 X
0$
b0 L
b0 S
b0 V
b1000000000110100110100000000000 R
b1000 Y
b10000000 &"
1$"
b10000100 %"
1o
b10001000 v
0x
b1100 p
b0 l
0z
b10000100 \
b100 f
b11110000 1
b10001000 ?
b0 Q
b10001100 a
b1000 B
1!
#94
0!
#96
b0 e
b0 d
b10 J
1:
b0 j
b10000 G
02
b10000 F
b10010000 @
b10000 A
b11010000000001100 h
b10010000 [
07
1)
b10000000 b
b11010 9
b10000000 <
b1100 Z
b110011010110110000000000001100 R
b11010011010000000000000 L
b110100000000000 S
b1101 ;
b11010 6
b10000 E
b0 X
b1100 Y
b1100 B
b1100 a
b1000000000110100110100000000000 Q
b1000 ?
b10001000 %"
0o
b10001100 v
1x
b0 p
b11 l
b10000100 &"
0$"
1+"
1!
#98
0!
#100
1i
0'
b10000000 _
1)
b10100 G
b10100 F
b10000 [
b1 j
b1000000 h
b10100 A
1:
b100 c
b100 `
b0 J
b1010100 b
b11011 9
b1010100 <
b1 U
b10000000 =
b10000 Z
b100 @
b11010 #
b110100000 X
b10000000 ]
1$
b1101011011000000000000110000 L
b1100 S
b1100 V
b0 ;
b11011 6
b11010 8
b1100 E
b10001111011110110000000000100000 R
b10000 Y
0+"
b10001000 &"
b1000 %"
b10 t
b1100 v
0x
b11010 w
b110100000000000 p
b10000000 n
b0 l
1z
b1100 ?
b110011010110110000000000001100 Q
b10000 a
b10000 B
1!
#102
0!
#104
b11000 G
b11000 F
13
b11000 A
b10010100 h
b10100 [
b0 j
1K
17
b100 b
b100 c
b1010100 =
b100 `
b1 T
0'
b100 _
b10100 Z
b0 R
b1101111011000000000010000000 L
b100000 S
b100000 V
b11011 8
b100011 E
b10100 @
b11011 #
b110000000000000000000000000000 X
b100 ^
b1100 ]
b10100 Y
b1 U
b10100 B
b10100 a
b10001111011110110000000000100000 Q
b10000 ?
b1100 %"
b0 t
b10000 v
b11011 w
b1100 p
b1010100 n
b100 k
1m
b1 l
b1000 &"
b11010 ""
b10000000 |
b100 {
1$"
1!
#106
0!
#108
b0 e
b0 d
b11 j
1)
12
b11100 G
b11000 @
03
b11100 F
b11000 [
0:
0i
b11000 h
b11100 A
0K
b100100 `
b100100 _
b0 b
b0 c
b0 9
b0 <
b0 =
b11000 Z
b100 -
b10000000000000000000000000000000 X
b100000 ]
b0 T
b0 U
b0 L
b0 S
b0 V
b0 6
b0 8
b0 E
b11011000000000000000001000 R
b11000 Y
b11010 *"
b100 '"
1+"
b1100 &"
b11011 ""
b1010100 |
b10000 %"
b10100 v
b100000 p
b100 n
b0 l
1s
b10100 ?
b0 Q
b11000 a
b11000 B
1!
#110
0!
#112
0)
b0 j
b111100 G
b11100 @
b100000 A
b111100 h
02
b111100 F
1N
b11100 [
b10 >
07
b111100 c
1'
b0 `
b1010100 =
b11 U
b0 _
b11100 Z
b0 R
b1101100000000000000000100000 L
b1000 S
b1000 V
b11011 8
b0 #
b0 X
b0 ^
b0 ]
b11100 Y
b111100 I
b11100 B
b11100 a
b11011000000000000000001000 Q
b11000 ?
b10100 %"
b11000 v
1x
b0 w
b0 p
b0 n
b0 k
0m
b11 l
0s
b10000 &"
b100 |
b100100 {
1!"
b11011 *"
1!
#114
b100 =
0!
#116
1)
b111100 `
b11 j
0'
b111100 _
b100000 @
b100000 [
12
0N
b100000 h
b1000000 A
b0 >
17
b1000000 G
b1000000 F
b0 =
b111100 Z
b111100 -
b0 I
b0 c
b0 U
b10000000000000000000000000000000 e
b111100 ^
b100000000000000000000000000000 X
0$
b0 L
b0 S
b0 V
b0 8
b111100 Y
b100100 '"
b111100 )"
1("
b10100 &"
b0 ""
b0 |
b0 {
0!"
b11000 %"
b10000000000000000000000000000000 d
1q
b11100 v
0x
b1000 p
b111100 k
b0 l
0z
b11100 ?
b0 Q
b100000 a
b111100 B
1!
#118
0!
#120
b1000100 G
b1000100 F
b100100 @
b1000100 A
b1000000 h
b100100 [
b0 `
1'
b0 _
b1000000 Z
b1000000000110100111000000000000 R
b0 e
b0 X
b0 ^
1$
b1000000 Y
b0 -
b1000000 B
b1000000 a
b111100 ?
b11100 %"
b0 d
0q
b100000 v
1x
b0 p
b0 k
b11 l
1z
b11000 &"
1~
b111100 {
0$"
b0 *"
b0 '"
b0 )"
0("
1!
#122
0!
#124
b0 e
b0 d
b11 J
1:
b0 j
02
b1001000 G
b1000100 @
b1001000 F
b1000100 [
b11100000001000100 h
b1001000 A
07
b100 b
b11010 9
b100 <
b1000100 Z
b111100 -
b11010011100000000000000 L
b111000000000000 S
b1110 ;
b11010 6
b10000 E
b100011010110100000000000000100 R
b1000100 Y
b111100 '"
0+"
b11100 &"
0~
b0 {
1$"
b111100 %"
b1000000 v
b1000000 ?
b1000000000110100111000000000000 Q
b1000100 a
b1000100 B
1!
#126
0!
#128
1i
1)
0'
b100 _
b1001100 G
13
b1001100 F
b1001100 A
b1011000 h
b11010 9
b1001000 [
1:
b10000100 c
17
b0 J
b10000100 `
b10000100 b
b100 =
b1 T
b1 U
b1001000 Z
b1000000100110100111000000000000 R
b1101011010000000000000010000 L
b100 S
b100 V
b0 ;
b11010 8
b1000 E
b10000100 @
b11010 #
b111000000 X
b100 ]
b1001000 Y
b0 -
b1001000 B
b1001000 a
b100011010110100000000000000100 Q
b1000100 ?
b1000000 %"
b11 t
b1000100 v
0x
b11010 w
b111000000000000 p
b100 n
b0 l
b111100 &"
b0 '"
1+"
1!
#130
0!
#132
b0 d
0)
1,
b10001000 0
b10001000 e
1H
b1110 9
0:
0i
b10001000 _
b1010000 G
03
b1010000 F
b1001100 [
b11100000001001100 h
b1010000 A
07
b10001000 b
b0 c
b10001000 `
b0 =
b10001000 Z
b1 T
b0 U
b1001100 @
b10000000000000000000000000000 X
b10000100 ^
b10011010011100000000000000 L
b111000000000000 S
b0 V
b1110 ;
b100 8
b10000 E
b1000010000000000000000000011000 R
b1001100 Y
b1000000 &"
b11010 ""
b100 |
b10000100 {
b1000100 %"
b0 t
b1001000 v
b100 p
b10000100 n
b10000100 k
1m
b1001000 ?
b1000000100110100111000000000000 Q
b1001100 a
b1001100 B
1!
#134
0!
#136
b0 d
1(
1g
b1 5
0)
b10001000 `
b10001000 _
b10001000 G
b1010100 F
b1010000 @
b1010100 A
b10110000 h
0:
b1010000 [
0H
b1111 0
b1010000 Z
b0 e
17
0,
b0 b
b0 9
b0 <
b0 T
b0 R
b1000000000000000000001100000 L
b11000 S
b11000 V
b0 ;
b0 6
b10000 8
b1110 #
b111000000 X
b0 ^
b10001000 ]
0$
b1010000 Y
b10000100 -
b1010000 B
b1010000 a
b1000010000000000000000000011000 Q
b1001100 ?
b10001000 \
b1001000 %"
b1001100 v
b1110 w
b111000000000000 p
b10001000 n
b0 k
0m
0z
b1000100 &"
b10000100 |
b10001000 {
b11010 *"
b10000100 '"
1!
#138
0!
#140
b11 j
b0 `
1'
b0 _
0:
12
b1010100 @
b10001100 F
b1010100 [
b10001100 G
0(
0g
b1010100 h
b10001100 A
b0 5
b0 0
b0 /
b10001000 Z
b10001000 -
b0 #
b1100000000000000000000000000000 X
b0 ]
b0 L
b0 S
b0 V
b0 8
b0 E
b10001000 Y
b10001000 '"
b1001000 &"
b1110 ""
b10001000 |
0$"
b1001100 %"
1o
b1010000 v
b0 w
b11000 p
b0 n
b1111 1
b1010000 ?
b0 Q
b1010100 a
b10001000 B
1!
#142
0!
#144
b10010000 G
b10010000 F
b1011000 @
b10010000 A
b10001100 h
b1011000 [
1)
b10001100 Z
b110100000001000000000001010000 R
b0 X
b10001100 Y
b10001100 B
b10001100 a
b10001000 ?
b1010000 %"
0o
b1010100 v
1x
b0 p
b11 l
b1001100 &"
b0 ""
b0 |
b0 {
b1110 *"
0+"
1!
#146
0!
#148
b100 9
1:
1i
b10010100 G
b10010000 @
0N
b10010100 F
b10010000 [
02
b111010000 h
b10010100 A
b101 j
03
b10010000 Z
b0 -
1$
b100000000000101000000 L
b1010000 S
b10000 V
b100 6
b1101 E
b100000000001010000000000000100 R
b10010000 Y
b0 *"
b0 '"
b1010000 &"
b10001000 %"
b10001100 v
1z
b10001100 ?
b110100000001000000000001010000 Q
b10010000 a
b10010000 B
1!
#150
0!
1&
#152
b0 4
b0 e
b0 d
1)
13
1:
1i
b10011000 F
b10010100 @
b10011000 A
b10100100 h
1C
b10010100 [
1(
b11110000 0
b0 j
1g
1.
1,
b1000 G
b11110000 /
b1010000 `
b10 5
1W
0'
b1010000 _
b101 9
b10010100 Z
b100000000100000 R
b101000000000000010000 L
b100 S
b100 V
b101 6
b1000 E
1P
b100 #
b1000000000000000000000000000001 X
b1010000 ]
b10010100 Y
b10010100 B
b10010100 a
b100000000001010000000000000100 Q
b10010000 ?
1O
b10001100 %"
b10010000 v
0x
b100 w
b1010000 p
1m
b101 l
b10001000 &"
1$"
1!
#154
0!
#156
1$
b0 e
b0 d
b0 4
0%
0:
0i
0D
b10011000 @
03
b1100 F
b10011000 [
0(
b10000000100011000 h
b1100 A
0g
0.
0,
b1100 G
b0 5
0W
0)
b100 `
b1111 0
b100 _
0P
0C
b1111 /
b1000 9
b1000 Z
b10100011 I
b101 #
b10000000000000000000000000000 X
b100 ]
b10000000010000000 L
b100000000100000 S
b100000 V
b1000 ;
b0 6
b0 E
b1000000000110100110100000000000 R
b1000 Y
1+"
b10001100 &"
b100 ""
b1010000 {
b10010000 %"
1o
1u
b10010100 v
b101 w
b100 p
b0 l
b10010100 \
b0 f
b11110000 1
b10010100 ?
b100000000100000 Q
b10011000 a
b1000 B
1!
#158
0!
0&
#160
b0 e
b0 d
b10 J
1:
b0 `
b0 j
1'
b0 _
b10000 G
b10000 F
b10011100 @
b10000 A
b11010000000001100 h
02
b10011100 [
07
1)
b10001000 b
b11010 9
b10001000 <
b1100 Z
b110011010110110000000000001100 R
b11010011010000000000000 L
b110100000000000 S
b0 V
b1101 ;
b11010 6
b10000 E
b1000 #
b10000000000000000000000100000000 X
b0 ]
0$
b1100 Y
b0 I
b1010000 -
b1100 B
b1100 a
b1000000000110100110100000000000 Q
b1000 ?
0O
b10010100 %"
0o
0u
b10011000 v
b1000 w
b100000000100000 p
0m
0z
b10010000 &"
b101 ""
b100 {
b100 *"
b1010000 '"
b10100011 )"
1!
#162
0!
#164
1i
0'
b10001000 _
1)
b10100 G
b10100 F
b10000 [
b1 j
b1000000 h
b10100 A
1:
b0 J
b111100 b
b11011 9
b111100 <
b10001000 =
b10000 Z
b100 -
b1 U
b0 @
b11010 #
b110100000 X
b10001000 ]
1$
b1101011011000000000000110000 L
b1100 S
b1100 V
b0 ;
b11011 6
b11010 8
b1100 E
b10001111011110110000000000100000 R
b10000 Y
b101 *"
b100 '"
b0 )"
b10010100 &"
b1000 ""
b0 {
0$"
b1000 %"
b10 t
b1100 v
b11010 w
b110100000000000 p
b10001000 n
1z
b1100 ?
b110011010110110000000000001100 Q
b10000 a
b10000 B
1!
#166
0!
#168
b11000 G
b11000 F
13
b11000 A
b10010100 h
b10100 [
b0 j
1K
17
b0 b
b0 c
b111100 =
b0 `
b1 T
1'
b0 _
b10100 Z
b0 R
b1101111011000000000010000000 L
b100000 S
b100000 V
b11011 8
b100011 E
b10100 @
b11011 #
b110000000000000000000000000000 X
b1100 ]
b10100 Y
b1 U
b0 -
b10100 B
b10100 a
b10001111011110110000000000100000 Q
b10000 ?
b1100 %"
b0 t
b10000 v
b11011 w
b1100 p
b111100 n
1m
b1 l
b1000 &"
b11010 ""
b10001000 |
1$"
b1000 *"
b0 '"
0+"
1!
#170
0!
#172
b0 e
b0 d
b11 j
1)
12
b11100 G
b11000 @
03
b11100 F
b11000 [
0:
0i
b11000 h
b11100 A
0K
b100000 `
0'
b100000 _
b0 9
b0 <
b0 =
b11000 Z
b10000000000000000000000000000000 X
b100000 ]
b0 T
b0 U
b0 L
b0 S
b0 V
b0 6
b0 8
b0 E
b11011000000000000000001000 R
b11000 Y
b11010 *"
1+"
b1100 &"
b11011 ""
b111100 |
b10000 %"
b10100 v
b100000 p
b0 n
b0 l
1s
b10100 ?
b0 Q
b11000 a
b11000 B
1!
#174
0!
#176
0)
b0 j
b110000 G
b11100 @
b100000 A
b111100 h
02
b110000 F
1N
b11100 [
b10 >
07
b0 `
b110000 c
1'
b0 _
b111100 =
b11 U
b11100 Z
b0 R
b1101100000000000000000100000 L
b1000 S
b1000 V
b11011 8
b0 #
b0 X
b0 ]
b11100 Y
b110000 I
b11100 B
b11100 a
b11011000000000000000001000 Q
b11000 ?
b10100 %"
b11000 v
1x
b0 w
b0 p
0m
b11 l
0s
b10000 &"
b0 |
b100000 {
1!"
b11011 *"
1!
#178
b0 =
0!
